a+;b+;b+;ep+;a-;a-;b-;b-;en+;ep- : ((K_b:aACT2:noCI:noWEE1 - 1) x (K_b:aACT2:noCI - 1)) <= 0 : true
a+;b+;b+;ep+;a-;a-;b-;b-;ep-;en+ : ((K_b:aACT2:noCI:noWEE1 - 1) x (K_b:aACT2:noCI - 1)) <= 0 : true
a+;b+;b+;ep+;a-;a-;b-;ep-;b-;en+ : ((K_b:aACT2:noCI:noWEE1 - 1) x (K_b:aACT2:noCI - 1)) <= 0 : true
a+;b+;b+;ep+;a-;b-;a-;b-;en+;ep- : ((K_b:aACT2:noCI:noWEE1 - 1) x (K_b:aACT2:noCI - 1)) <= 0 : true
a+;b+;b+;ep+;a-;b-;a-;b-;ep-;en+ : ((K_b:aACT2:noCI:noWEE1 - 1) x (K_b:aACT2:noCI - 1)) <= 0 : true
a+;b+;b+;ep+;a-;b-;a-;ep-;b-;en+ : ((K_b:aACT2:noCI:noWEE1 - 1) x (K_b:aACT2:noCI - 1)) <= 0 : true
a+;b+;b+;ep+;a-;b-;b-;a-;en+;ep- : ((K_b:aACT2:noCI:noWEE1 - 1) x (K_b:aACT2:noCI - 1)) <= 0 : true
a+;b+;b+;ep+;a-;b-;b-;a-;ep-;en+ : ((K_b:aACT2:noCI:noWEE1 - 1) x (K_b:aACT2:noCI - 1)) <= 0 : true
