b+;ep+;a-;b-;a-;b-;en+;ep- : ((K_b:noWEE1 = 0 and K_b:SAC:aACT2:noWEE1 = 2))
b+;ep+;a-;b-;a-;b-;ep-;en+ : same as below
b+;ep+;a-;b-;a-;ep-;b-;en+ : same as below
b+;ep+;a-;b-;b-;a-;en+;ep- : same as below
b+;ep+;a-;b-;b-;a-;ep-;en+ : same as below
