a+;b+;b+;ep+;a-;a-;b-;b-;en+;ep- : ((K_b:aACT2:noCI:noWEE1 = 2 and K_b:aACT2:noCI = 1))
a+;b+;b+;ep+;a-;a-;b-;b-;ep-;en+ : same as below
a+;b+;b+;ep+;a-;a-;b-;ep-;b-;en+ : same as below
a+;b+;b+;ep+;a-;b-;a-;b-;en+;ep- : same as below
a+;b+;b+;ep+;a-;b-;a-;b-;ep-;en+ : same as below
a+;b+;b+;ep+;a-;b-;a-;ep-;b-;en+ : same as below
a+;b+;b+;ep+;a-;b-;b-;a-;en+;ep- : same as below
a+;b+;b+;ep+;a-;b-;b-;a-;ep-;en+ : same as below
