
VAR

gf = 1 (ENV_VAR) ;
sk = 0 2 ;
a = 0 2 ;
b = 0 2 ;
ep = 0 1 ;
en = 0 1 ;

REG

noASK [(!(a>=1))]=> sk ;
rp [(sk>=1)]=> sk ;
noEn1 [(!(en>=1))]=> sk ;
restrictGF [((gf>=1)&(!(b>=2)))]=> sk ;
skACT [(sk>=2)]=> a ;
restrictSK [((sk>=1)&(a>=1))]=> a ;
endREP [((!(sk>=1))&(a>=1))]=> a ;
noCI [(!((en>=1)|(ep>=1)))]=> a b ;
SAC [((ep>=1)&(a>=2))]=> b ;
noWEE1 [(b>=1)]=> b ;
aACT2 [(a>=2)]=> b ;
bACT2 [(b>=2)]=> ep ;
noEn2 [(!(en>=1))]=> ep ;
noA [(!(a>=1))]=> en ;
noSK [(!(sk>=1))]=> en ;
noB [(!(b>=1))]=> en ;

PARA

# Parameters for sk

K_sk = 0;
K_sk:noASK = 0;
K_sk:noEn1 = 0;
K_sk:restrictGF = 0;
K_sk:rp = 0;
K_sk:noASK:noEn1 = 0;
K_sk:noEn1:restrictGF = 0;
K_sk:noEn1:rp = 0;
K_sk:noASK:restrictGF = 1;
K_sk:restrictGF:rp = 0;
K_sk:noASK:rp = 0..1;
K_sk:noASK:noEn1:rp = 2;
K_sk:noASK:noEn1:restrictGF = 0..1;
K_sk:noASK:restrictGF:rp = 0..1;
K_sk:noEn1:restrictGF:rp = 0;
K_sk:noASK:noEn1:restrictGF:rp = 2;

# Parameters for a

K_a = 0;
K_a:endREP = 0;
K_a:noCI = 0;
K_a:restrictSK = 0;
K_a:skACT = 0;
K_a:noCI:skACT = 1;
K_a:endREP:noCI = 2;
K_a:restrictSK:skACT = 0;
K_a:noCI:restrictSK = 0..1;
K_a:noCI:restrictSK:skACT = 0..1;

# Parameters for b

K_b = 0;
K_b:aACT2 = 0..1;
K_b:noCI = 0;
K_b:noWEE1 = 0;
K_b:aACT2:noWEE1 = 1;
K_b:SAC:aACT2 = 1;
K_b:noCI:noWEE1 = 0;
K_b:aACT2:noCI = 1..2;
K_b:SAC:aACT2:noWEE1 = 2;
K_b:aACT2:noCI:noWEE1 = 2;

# Parameters for ep

K_ep = 0;
K_ep:bACT2 = 0..1;
K_ep:noEn2 = 0;
K_ep:bACT2:noEn2 = 1;

# Parameters for en

K_en = 0;
K_en:noA = 0;
K_en:noB = 0;
K_en:noSK = 0;
K_en:noA:noB = 0;
K_en:noB:noSK = 0;
K_en:noA:noSK = 0;
K_en:noA:noB:noSK = 1;

NO CTL FORMULA
FAIRCTL
[AF(((((((sk=0)&(ep=0))&(a=0))&(b=0))&(en=1))&(gf=1))),
]

HOARE
Result of Hoare triple is:
    Set of formulas: [(K_ep<1), (K_en:noA:noB:noSK>0), (K_b:noWEE1<1), (K_b:noWEE1<2), (K_a:endREP<1), (K_a:endREP<2), (K_ep:bACT2:noEn2>0), (K_b:aACT2:noCI:noWEE1>1), (K_b:aACT2:noCI>0), (K_a:endREP:noCI>1), (K_sk:noEn1:restrictGF:rp<1), (K_sk:noEn1:restrictGF:rp<2), (K_a:noCI:skACT>0), (K_sk:noASK:noEn1:restrictGF:rp>1), (K_en:noA:noB<1), (K_sk:noASK:restrictGF>0)]
    Hoare result is a conjunction of conditions on K, it has been used to reduced parameters bounds
    0 models have been removed

======================
# Number of effective parameterizations : 16
======================




########### Result of model checking ###########
# Total number of models 16
# Selected models: 16
# Computation time: 388ms

Models have been written in ./input.csv

