b+;ep+;a-;a-;b-;b-;en+;ep- : ((K_a:endREP - 1) x (K_a:endREP - 1)) <= 0 : false
b+;ep+;a-;a-;b-;b-;ep-;en+ : ((K_a:endREP - 1) x (K_a:endREP - 1)) <= 0 : false
b+;ep+;a-;a-;b-;ep-;b-;en+ : ((K_a:endREP - 1) x (K_a:endREP - 1)) <= 0 : false
b+;ep+;a-;b-;a-;b-;en+;ep- : ((K_b:noWEE1 - 2) x (K_b:SAC:aACT2:noWEE1 - 2)) <= 0 : true
b+;ep+;a-;b-;a-;b-;ep-;en+ : ((K_b:noWEE1 - 2) x (K_b:SAC:aACT2:noWEE1 - 2)) <= 0 : true
b+;ep+;a-;b-;a-;ep-;b-;en+ : ((K_b:noWEE1 - 2) x (K_b:SAC:aACT2:noWEE1 - 2)) <= 0 : true
b+;ep+;a-;b-;b-;a-;en+;ep- : ((K_b:noWEE1 - 2) x (K_b:SAC:aACT2:noWEE1 - 2)) <= 0 : true
b+;ep+;a-;b-;b-;a-;ep-;en+ : ((K_b:noWEE1 - 2) x (K_b:SAC:aACT2:noWEE1 - 2)) <= 0 : true
